{
    "name": null,
    "uId": 0,
    "creationDate": null,
    "lastModified": null,
    "columns": [{
            "header": "id",
            "content": [{
                    "content": 1,
                    "contentType": "INTEGER"
                }, {
                    "content": 2,
                    "contentType": "INTEGER"
                }, {
                    "content": 3,
                    "contentType": "INTEGER"
                }, {
                    "content": 4,
                    "contentType": "INTEGER"
                }, {
                    "content": 5,
                    "contentType": "INTEGER"
                }],
            "isPk": false
        }, {
            "header": "name",
            "content": [{
                    "content": "Moritz",
                    "contentType": "STRING"
                }, {
                    "content": "Chantal",
                    "contentType": "STRING"
                }, {
                    "content": "Bruno",
                    "contentType": "STRING"
                }, {
                    "content": "Hendrik",
                    "contentType": "STRING"
                }, {
                    "content": "Jan",
                    "contentType": "STRING"
                }],
            "isPk": false
        }]
}